…
\##Answer the following questions using these data: How many distinct
stations are there? Note that stations are identified both by name and
by line (e.g. 125th St 8th Avenue; 125st Broadway; 125st Lenox); the
distinct function may be useful here.

There are 465 distinct subway stations.

``` r
distinct(subway, line, station_name)
```

    ## # A tibble: 465 × 2
    ##    line     station_name            
    ##    <chr>    <chr>                   
    ##  1 4 Avenue 25th St                 
    ##  2 4 Avenue 36th St                 
    ##  3 4 Avenue 45th St                 
    ##  4 4 Avenue 53rd St                 
    ##  5 4 Avenue 59th St                 
    ##  6 4 Avenue 77th St                 
    ##  7 4 Avenue 86th St                 
    ##  8 4 Avenue 95th St                 
    ##  9 4 Avenue 9th St                  
    ## 10 4 Avenue Atlantic Av-Barclays Ctr
    ## # … with 455 more rows

How many stations are ADA compliant?

There are 5,148 ADA-compliant subway entrances.

``` r
filter(subway, ada==TRUE)
```

    ## # A tibble: 5,148 × 11
    ##    line     statio…¹ stati…² stati…³ entra…⁴ entry exit_…⁵ vending ada   route…⁶
    ##    <chr>    <chr>      <dbl>   <dbl> <chr>   <lgl> <lgl>   <lgl>   <lgl> <chr>  
    ##  1 4 Avenue Atlanti…    40.7   -74.0 Elevat… TRUE  NA      TRUE    TRUE  route1 
    ##  2 4 Avenue Atlanti…    40.7   -74.0 Elevat… TRUE  NA      TRUE    TRUE  route2 
    ##  3 4 Avenue Atlanti…    40.7   -74.0 Elevat… TRUE  NA      TRUE    TRUE  route3 
    ##  4 4 Avenue Atlanti…    40.7   -74.0 Elevat… TRUE  NA      TRUE    TRUE  route4 
    ##  5 4 Avenue Atlanti…    40.7   -74.0 Elevat… TRUE  NA      TRUE    TRUE  route5 
    ##  6 4 Avenue Atlanti…    40.7   -74.0 Elevat… TRUE  NA      TRUE    TRUE  route6 
    ##  7 4 Avenue Atlanti…    40.7   -74.0 Elevat… TRUE  NA      TRUE    TRUE  route7 
    ##  8 4 Avenue Atlanti…    40.7   -74.0 Elevat… TRUE  NA      TRUE    TRUE  route8 
    ##  9 4 Avenue Atlanti…    40.7   -74.0 Elevat… TRUE  NA      TRUE    TRUE  route9 
    ## 10 4 Avenue Atlanti…    40.7   -74.0 Elevat… TRUE  NA      TRUE    TRUE  route10
    ## # … with 5,138 more rows, 1 more variable: route <chr>, and abbreviated
    ## #   variable names ¹​station_name, ²​station_latitude, ³​station_longitude,
    ## #   ⁴​entrance_type, ⁵​exit_only, ⁶​route_num
…
How many distinct stations serve the A train? There are 60 distinct
stations that are served by the A train.

Of the stations that serve the A train, how many are ADA compliant? Of
these stations, 17 are ADA compliant.

``` r
subway %>% 
  filter(route == "A") %>% 
  select(station_name, line) %>% 
  distinct
```

    ## # A tibble: 60 × 2
    ##    station_name                  line           
    ##    <chr>                         <chr>          
    ##  1 Times Square                  42nd St Shuttle
    ##  2 125th St                      8 Avenue       
    ##  3 145th St                      8 Avenue       
    ##  4 14th St                       8 Avenue       
    ##  5 168th St - Washington Heights 8 Avenue       
    ##  6 175th St                      8 Avenue       
    ##  7 181st St                      8 Avenue       
    ##  8 190th St                      8 Avenue       
    ##  9 34th St                       8 Avenue       
    ## 10 42nd St                       8 Avenue       
    ## # … with 50 more rows
…
